,Id,Churn
0,0,0
1,1,1
2,2,1
3,3,0
4,4,0
5,5,0
6,6,0
7,7,0
8,8,0
9,9,0
10,10,0
11,11,0
12,12,0
13,13,0
14,14,0
15,15,0
16,16,0
17,17,0
18,18,0
19,19,0
20,20,0
21,21,0
22,22,1
23,23,0
24,24,0
25,25,0
26,26,0
27,27,0
28,28,0
29,29,0
30,30,1
31,31,0
32,32,1
33,33,1
34,34,0
35,35,0
36,36,1
37,37,0
38,38,0
39,39,0
40,40,0
41,41,1
42,42,0
43,43,0
44,44,0
45,45,0
46,46,0
47,47,0
48,48,0
49,49,0
50,50,0
51,51,1
52,52,0
53,53,0
54,54,0
55,55,0
56,56,0
57,57,1
58,58,1
59,59,0
60,60,0
61,61,0
62,62,0
63,63,0
64,64,1
65,65,0
66,66,0
67,67,0
68,68,0
69,69,1
70,70,1
71,71,1
72,72,0
73,73,1
74,74,1
75,75,0
76,76,0
77,77,0
78,78,0
79,79,0
80,80,1
81,81,1
82,82,1
83,83,0
84,84,0
85,85,0
86,86,0
87,87,0
88,88,0
89,89,0
90,90,0
91,91,0
92,92,1
93,93,1
94,94,0
95,95,0
96,96,0
97,97,1
98,98,0
99,99,1
100,100,0
101,101,1
102,102,0
103,103,1
104,104,0
105,105,1
106,106,0
107,107,0
108,108,0
109,109,0
110,110,0
111,111,0
112,112,0
113,113,0
114,114,0
115,115,1
116,116,0
117,117,0
118,118,0
119,119,1
120,120,0
121,121,0
122,122,0
123,123,0
124,124,0
125,125,0
126,126,1
127,127,0
128,128,0
129,129,0
130,130,0
131,131,0
132,132,0
133,133,0
134,134,0
135,135,0
136,136,0
137,137,0
138,138,0
139,139,0
140,140,0
141,141,0
142,142,0
143,143,0
144,144,0
145,145,0
146,146,0
147,147,0
148,148,0
149,149,1
150,150,0
151,151,1
152,152,0
153,153,0
154,154,0
155,155,1
156,156,0
157,157,0
158,158,0
159,159,0
160,160,0
161,161,1
162,162,0
163,163,0
164,164,0
165,165,0
166,166,0
167,167,0
168,168,0
169,169,1
170,170,1
171,171,0
172,172,0
173,173,0
174,174,0
175,175,1
176,176,0
177,177,0
178,178,0
179,179,1
180,180,0
181,181,0
182,182,0
183,183,0
184,184,0
185,185,0
186,186,0
187,187,0
188,188,0
189,189,0
190,190,0
191,191,0
192,192,0
193,193,0
194,194,0
195,195,0
196,196,0
197,197,0
198,198,0
199,199,0
200,200,0
201,201,1
202,202,0
203,203,1
204,204,0
205,205,0
206,206,0
207,207,1
208,208,1
209,209,0
210,210,0
211,211,0
212,212,1
213,213,0
214,214,0
215,215,1
216,216,1
217,217,1
218,218,0
219,219,0
220,220,0
221,221,0
222,222,0
223,223,0
224,224,0
225,225,1
226,226,0
227,227,0
228,228,0
229,229,0
230,230,0
231,231,0
232,232,0
233,233,0
234,234,0
235,235,0
236,236,1
237,237,0
238,238,0
239,239,0
240,240,0
241,241,0
242,242,0
243,243,0
244,244,0
245,245,0
246,246,0
247,247,0
248,248,0
249,249,0
250,250,0
251,251,0
252,252,0
253,253,0
254,254,0
255,255,1
256,256,0
257,257,0
258,258,0
259,259,1
260,260,0
261,261,0
262,262,0
263,263,1
264,264,1
265,265,0
266,266,1
267,267,0
268,268,0
269,269,0
270,270,0
271,271,0
272,272,0
273,273,1
274,274,0
275,275,0
276,276,0
277,277,0
278,278,0
279,279,0
280,280,1
281,281,0
282,282,1
283,283,0
284,284,0
285,285,0
286,286,0
287,287,0
288,288,0
289,289,1
290,290,0
291,291,1
292,292,0
293,293,0
294,294,1
295,295,0
296,296,0
297,297,0
298,298,0
299,299,0
300,300,0
301,301,0
302,302,0
303,303,1
304,304,0
305,305,0
306,306,0
307,307,1
308,308,1
309,309,1
310,310,0
311,311,0
312,312,0
313,313,0
314,314,0
315,315,1
316,316,0
317,317,0
318,318,1
319,319,1
320,320,0
321,321,1
322,322,1
323,323,0
324,324,0
325,325,1
326,326,0
327,327,0
328,328,0
329,329,0
330,330,0
331,331,0
332,332,0
333,333,0
334,334,1
335,335,0
336,336,0
337,337,0
338,338,0
339,339,0
340,340,0
341,341,0
342,342,0
343,343,0
344,344,0
345,345,0
346,346,0
347,347,0
348,348,0
349,349,0
350,350,0
351,351,0
352,352,0
353,353,0
354,354,0
355,355,0
356,356,1
357,357,1
358,358,1
359,359,1
360,360,0
361,361,0
362,362,0
363,363,0
364,364,0
365,365,0
366,366,0
367,367,0
368,368,0
369,369,0
370,370,0
371,371,0
372,372,0
373,373,1
374,374,0
375,375,0
376,376,0
377,377,0
378,378,1
379,379,0
380,380,0
381,381,0
382,382,0
383,383,0
384,384,0
385,385,0
386,386,1
387,387,0
388,388,0
389,389,0
390,390,1
391,391,0
392,392,1
393,393,0
394,394,0
395,395,0
396,396,0
397,397,0
398,398,0
399,399,0
400,400,0
401,401,0
402,402,0
403,403,0
404,404,0
405,405,0
406,406,1
407,407,0
408,408,0
409,409,0
410,410,0
411,411,0
412,412,1
413,413,1
414,414,0
415,415,0
416,416,0
417,417,0
418,418,0
419,419,0
420,420,0
421,421,0
422,422,0
423,423,0
424,424,0
425,425,1
426,426,0
427,427,0
428,428,1
429,429,0
430,430,0
431,431,0
432,432,1
433,433,1
434,434,1
435,435,1
436,436,0
437,437,0
438,438,0
439,439,1
440,440,0
441,441,0
442,442,0
443,443,0
444,444,0
445,445,0
446,446,0
447,447,0
448,448,0
449,449,0
450,450,1
451,451,0
452,452,0
453,453,1
454,454,0
455,455,0
456,456,0
457,457,0
458,458,0
459,459,0
460,460,0
461,461,0
462,462,0
463,463,0
464,464,0
465,465,0
466,466,0
467,467,1
468,468,0
469,469,0
470,470,0
471,471,0
472,472,0
473,473,0
474,474,1
475,475,0
476,476,1
477,477,0
478,478,0
479,479,0
480,480,0
481,481,0
482,482,0
483,483,1
484,484,0
485,485,0
486,486,0
487,487,0
488,488,0
489,489,0
490,490,1
491,491,0
492,492,0
493,493,0
494,494,0
495,495,0
496,496,0
497,497,0
498,498,1
499,499,0
500,500,1
501,501,0
502,502,0
503,503,0
504,504,0
505,505,0
506,506,0
507,507,0
508,508,1
509,509,0
510,510,1
511,511,0
512,512,1
513,513,0
514,514,0
515,515,0
516,516,0
517,517,1
518,518,0
519,519,0
520,520,1
521,521,0
522,522,0
523,523,0
524,524,1
525,525,0
526,526,0
527,527,0
528,528,1
529,529,0
530,530,0
531,531,0
532,532,0
533,533,0
534,534,1
535,535,1
536,536,0
537,537,0
538,538,0
539,539,0
540,540,0
541,541,1
542,542,0
543,543,0
544,544,0
545,545,0
546,546,0
547,547,0
548,548,0
549,549,0
550,550,0
551,551,0
552,552,0
553,553,0
554,554,0
555,555,0
556,556,1
557,557,1
558,558,0
559,559,0
560,560,0
561,561,0
562,562,0
563,563,0
564,564,0
565,565,0
566,566,1
567,567,0
568,568,0
569,569,0
570,570,0
571,571,1
572,572,1
573,573,0
574,574,0
575,575,0
576,576,0
577,577,1
578,578,0
579,579,1
580,580,0
581,581,1
582,582,0
583,583,0
584,584,0
585,585,0
586,586,0
587,587,0
588,588,1
589,589,0
590,590,1
591,591,0
592,592,1
593,593,0
594,594,0
595,595,1
596,596,0
597,597,0
598,598,0
599,599,0
600,600,0
601,601,0
602,602,0
603,603,1
604,604,0
605,605,0
606,606,0
607,607,1
608,608,0
609,609,0
610,610,1
611,611,0
612,612,0
613,613,0
614,614,0
615,615,0
616,616,1
617,617,0
618,618,0
619,619,0
620,620,0
621,621,0
622,622,1
623,623,1
624,624,0
625,625,0
626,626,0
627,627,0
628,628,1
629,629,0
630,630,1
631,631,0
632,632,0
633,633,0
634,634,1
635,635,0
636,636,0
637,637,0
638,638,0
639,639,1
640,640,1
641,641,0
642,642,0
643,643,0
644,644,0
645,645,0
646,646,0
647,647,0
648,648,0
649,649,0
650,650,0
651,651,1
652,652,0
653,653,0
654,654,0
655,655,1
656,656,0
657,657,0
658,658,0
659,659,0
660,660,0
661,661,0
662,662,0
663,663,0
664,664,0
665,665,1
666,666,1
667,667,0
668,668,0
669,669,0
670,670,0
671,671,0
672,672,1
673,673,0
674,674,1
675,675,0
676,676,0
677,677,0
678,678,0
679,679,1
680,680,1
681,681,0
682,682,0
683,683,0
684,684,0
685,685,0
686,686,0
687,687,0
688,688,0
689,689,0
690,690,1
691,691,1
692,692,0
693,693,0
694,694,0
695,695,1
696,696,0
697,697,0
698,698,0
699,699,0
700,700,0
701,701,0
702,702,0
703,703,0
704,704,1
705,705,0
706,706,0
707,707,1
708,708,0
709,709,0
710,710,0
711,711,0
712,712,0
713,713,0
714,714,0
715,715,0
716,716,1
717,717,0
718,718,0
719,719,1
720,720,0
721,721,0
722,722,0
723,723,1
724,724,0
725,725,1
726,726,0
727,727,0
728,728,0
729,729,0
730,730,0
731,731,1
732,732,0
733,733,0
734,734,0
735,735,1
736,736,0
737,737,0
738,738,0
739,739,0
740,740,0
741,741,0
742,742,0
743,743,0
744,744,0
745,745,0
746,746,0
747,747,0
748,748,0
749,749,1
750,750,1
751,751,0
752,752,0
753,753,0
754,754,1
755,755,0
756,756,0
757,757,0
758,758,0
759,759,1
760,760,0
761,761,1
762,762,1
763,763,0
764,764,0
765,765,0
766,766,0
767,767,0
768,768,0
769,769,0
770,770,1
771,771,0
772,772,1
773,773,0
774,774,1
775,775,0
776,776,0
777,777,1
778,778,0
779,779,1
780,780,0
781,781,1
782,782,1
783,783,1
784,784,0
785,785,1
786,786,0
787,787,0
788,788,0
789,789,0
790,790,0
791,791,1
792,792,0
793,793,1
794,794,1
795,795,0
796,796,0
797,797,0
798,798,0
799,799,0
800,800,0
801,801,0
802,802,0
803,803,1
804,804,0
805,805,0
806,806,0
807,807,1
808,808,0
809,809,0
810,810,0
811,811,0
812,812,0
813,813,0
814,814,0
815,815,1
816,816,0
817,817,0
818,818,0
819,819,0
820,820,0
821,821,1
822,822,0
823,823,0
824,824,0
825,825,0
826,826,0
827,827,0
828,828,1
829,829,1
830,830,1
831,831,1
832,832,0
833,833,0
834,834,0
835,835,0
836,836,0
837,837,1
838,838,0
839,839,0
840,840,0
841,841,0
842,842,0
843,843,0
844,844,0
845,845,0
846,846,1
847,847,1
848,848,0
849,849,0
850,850,0
851,851,0
852,852,0
853,853,0
854,854,0
855,855,0
856,856,1
857,857,0
858,858,1
859,859,0
860,860,1
861,861,0
862,862,0
863,863,1
864,864,0
865,865,0
866,866,0
867,867,0
868,868,0
869,869,0
870,870,1
871,871,0
872,872,0
873,873,1
874,874,1
875,875,0
876,876,0
877,877,0
878,878,0
879,879,0
880,880,0
881,881,0
882,882,0
883,883,1
884,884,0
885,885,0
886,886,0
887,887,0
888,888,0
889,889,0
890,890,0
891,891,0
892,892,0
893,893,1
894,894,0
895,895,0
896,896,0
897,897,0
898,898,0
899,899,1
900,900,0
901,901,0
902,902,0
903,903,0
904,904,0
905,905,0
906,906,1
907,907,0
908,908,0
909,909,1
910,910,0
911,911,0
912,912,0
913,913,1
914,914,0
915,915,0
916,916,1
917,917,0
918,918,0
919,919,1
920,920,0
921,921,1
922,922,0
923,923,0
924,924,1
925,925,0
926,926,0
927,927,0
928,928,0
929,929,0
930,930,1
931,931,0
932,932,1
933,933,0
934,934,0
935,935,0
936,936,0
937,937,0
938,938,0
939,939,0
940,940,0
941,941,1
942,942,0
943,943,0
944,944,0
945,945,1
946,946,0
947,947,0
948,948,0
949,949,0
950,950,1
951,951,0
952,952,0
953,953,0
954,954,0
955,955,0
956,956,0
957,957,0
958,958,0
959,959,0
960,960,0
961,961,0
962,962,0
963,963,0
964,964,1
965,965,1
966,966,0
967,967,0
968,968,0
969,969,0
970,970,0
971,971,0
972,972,0
973,973,0
974,974,0
975,975,1
976,976,0
977,977,0
978,978,0
979,979,0
980,980,1
981,981,0
982,982,0
983,983,0
984,984,1
985,985,0
986,986,0
987,987,1
988,988,0
989,989,0
990,990,1
991,991,1
992,992,0
993,993,0
994,994,1
995,995,0
996,996,0
997,997,0
998,998,1
999,999,0
1000,1000,0
1001,1001,0
1002,1002,0
1003,1003,0
1004,1004,0
1005,1005,0
1006,1006,0
1007,1007,0
1008,1008,0
1009,1009,0
1010,1010,1
1011,1011,0
1012,1012,0
1013,1013,0
1014,1014,0
1015,1015,0
1016,1016,0
1017,1017,0
1018,1018,0
1019,1019,1
1020,1020,1
1021,1021,0
1022,1022,0
1023,1023,0
1024,1024,0
1025,1025,1
1026,1026,0
1027,1027,0
1028,1028,0
1029,1029,1
1030,1030,0
1031,1031,0
1032,1032,0
1033,1033,0
1034,1034,0
1035,1035,1
1036,1036,0
1037,1037,0
1038,1038,0
1039,1039,0
1040,1040,0
1041,1041,0
1042,1042,1
1043,1043,0
1044,1044,0
1045,1045,0
1046,1046,0
1047,1047,0
1048,1048,1
1049,1049,0
1050,1050,0
1051,1051,0
1052,1052,0
1053,1053,0
1054,1054,0
1055,1055,0
1056,1056,0
1057,1057,0
1058,1058,0
1059,1059,1
1060,1060,0
1061,1061,0
1062,1062,0
1063,1063,0
1064,1064,0
1065,1065,0
1066,1066,0
1067,1067,0
1068,1068,0
1069,1069,0
1070,1070,0
1071,1071,0
1072,1072,0
1073,1073,0
1074,1074,0
1075,1075,0
1076,1076,0
1077,1077,0
1078,1078,0
1079,1079,1
1080,1080,0
1081,1081,1
1082,1082,0
1083,1083,0
1084,1084,1
1085,1085,0
1086,1086,0
1087,1087,0
1088,1088,1
1089,1089,1
1090,1090,0
1091,1091,1
1092,1092,0
1093,1093,1
1094,1094,0
1095,1095,0
1096,1096,0
1097,1097,0
1098,1098,0
1099,1099,0
1100,1100,0
1101,1101,0
1102,1102,0
1103,1103,0
1104,1104,0
1105,1105,0
1106,1106,0
1107,1107,0
1108,1108,0
1109,1109,0
1110,1110,1
1111,1111,0
1112,1112,0
1113,1113,0
1114,1114,0
1115,1115,1
1116,1116,0
1117,1117,0
1118,1118,0
1119,1119,0
1120,1120,0
1121,1121,0
1122,1122,0
1123,1123,0
1124,1124,0
1125,1125,0
1126,1126,0
1127,1127,0
1128,1128,0
1129,1129,0
1130,1130,0
1131,1131,0
1132,1132,0
1133,1133,0
1134,1134,1
1135,1135,1
1136,1136,0
1137,1137,0
1138,1138,1
1139,1139,0
1140,1140,1
1141,1141,1
1142,1142,0
1143,1143,0
1144,1144,0
1145,1145,0
1146,1146,0
1147,1147,0
1148,1148,0
1149,1149,0
1150,1150,0
1151,1151,0
1152,1152,0
1153,1153,0
1154,1154,0
1155,1155,0
1156,1156,0
1157,1157,0
1158,1158,1
1159,1159,1
1160,1160,0
1161,1161,0
1162,1162,0
1163,1163,0
1164,1164,0
1165,1165,1
1166,1166,0
1167,1167,0
1168,1168,0
1169,1169,0
1170,1170,0
1171,1171,0
1172,1172,0
1173,1173,0
1174,1174,0
1175,1175,1
1176,1176,0
1177,1177,0
1178,1178,0
1179,1179,0
1180,1180,0
1181,1181,0
1182,1182,0
1183,1183,0
1184,1184,0
1185,1185,0
1186,1186,1
1187,1187,1
1188,1188,0
1189,1189,0
1190,1190,0
1191,1191,0
1192,1192,0
1193,1193,1
1194,1194,1
1195,1195,0
1196,1196,0
1197,1197,0
1198,1198,0
1199,1199,0
1200,1200,0
1201,1201,0
1202,1202,0
1203,1203,1
1204,1204,0
1205,1205,0
1206,1206,1
1207,1207,0
1208,1208,0
1209,1209,0
1210,1210,0
1211,1211,0
1212,1212,0
1213,1213,1
1214,1214,0
1215,1215,0
1216,1216,0
1217,1217,1
1218,1218,0
1219,1219,0
1220,1220,0
1221,1221,0
1222,1222,1
1223,1223,0
1224,1224,0
1225,1225,0
1226,1226,1
1227,1227,1
1228,1228,1
1229,1229,1
1230,1230,0
1231,1231,1
1232,1232,1
1233,1233,0
1234,1234,0
1235,1235,0
1236,1236,1
1237,1237,1
1238,1238,1
1239,1239,0
1240,1240,0
1241,1241,0
1242,1242,0
1243,1243,1
1244,1244,0
1245,1245,0
1246,1246,0
1247,1247,0
1248,1248,0
1249,1249,0
1250,1250,0
1251,1251,0
1252,1252,0
1253,1253,1
1254,1254,0
1255,1255,0
1256,1256,1
1257,1257,1
1258,1258,0
1259,1259,0
1260,1260,1
1261,1261,0
1262,1262,0
1263,1263,0
1264,1264,0
1265,1265,0
1266,1266,1
1267,1267,0
1268,1268,1
1269,1269,0
1270,1270,0
1271,1271,0
1272,1272,0
1273,1273,0
1274,1274,0
1275,1275,0
1276,1276,0
1277,1277,0
1278,1278,0
1279,1279,0
1280,1280,0
1281,1281,1
1282,1282,1
1283,1283,0
1284,1284,1
1285,1285,0
1286,1286,0
1287,1287,1
1288,1288,1
1289,1289,0
1290,1290,0
1291,1291,1
1292,1292,0
1293,1293,0
1294,1294,0
1295,1295,0
1296,1296,0
1297,1297,0
1298,1298,1
1299,1299,1
1300,1300,1
1301,1301,1
1302,1302,0
1303,1303,1
1304,1304,0
1305,1305,0
1306,1306,0
1307,1307,0
1308,1308,0
1309,1309,1
1310,1310,0
1311,1311,0
1312,1312,0
1313,1313,0
1314,1314,0
1315,1315,0
1316,1316,0
1317,1317,1
1318,1318,0
1319,1319,0
1320,1320,0
1321,1321,0
1322,1322,0
1323,1323,0
1324,1324,0
1325,1325,0
1326,1326,1
1327,1327,0
1328,1328,1
1329,1329,0
1330,1330,1
1331,1331,0
1332,1332,0
1333,1333,0
1334,1334,0
1335,1335,1
1336,1336,0
1337,1337,1
1338,1338,0
1339,1339,1
1340,1340,0
1341,1341,0
1342,1342,0
1343,1343,0
1344,1344,0
1345,1345,0
1346,1346,0
1347,1347,0
1348,1348,1
1349,1349,0
1350,1350,0
1351,1351,0
1352,1352,0
1353,1353,0
1354,1354,0
1355,1355,1
1356,1356,0
1357,1357,0
1358,1358,0
1359,1359,0
1360,1360,0
1361,1361,0
1362,1362,1
1363,1363,0
1364,1364,0
1365,1365,0
1366,1366,0
1367,1367,0
1368,1368,0
1369,1369,0
1370,1370,0
1371,1371,1
1372,1372,0
1373,1373,0
1374,1374,0
1375,1375,0
1376,1376,0
1377,1377,0
1378,1378,0
1379,1379,0
1380,1380,1
1381,1381,1
1382,1382,0
1383,1383,0
1384,1384,0
1385,1385,1
1386,1386,1
1387,1387,0
1388,1388,1
1389,1389,1
1390,1390,1
1391,1391,0
1392,1392,1
1393,1393,0
1394,1394,0
1395,1395,0
1396,1396,0
1397,1397,0
1398,1398,0
1399,1399,0
1400,1400,0
1401,1401,0
1402,1402,0
1403,1403,0
1404,1404,0
1405,1405,0
1406,1406,0
1407,1407,0
1408,1408,0
1409,1409,0
1410,1410,0
1411,1411,0
1412,1412,1
1413,1413,1
1414,1414,0
1415,1415,0
1416,1416,0
1417,1417,0
1418,1418,0
1419,1419,0
1420,1420,0
1421,1421,0
1422,1422,0
1423,1423,0
1424,1424,0
1425,1425,0
1426,1426,0
1427,1427,0
1428,1428,1
1429,1429,0
1430,1430,0
1431,1431,0
1432,1432,0
1433,1433,0
1434,1434,1
1435,1435,0
1436,1436,0
1437,1437,0
1438,1438,0
1439,1439,0
1440,1440,0
1441,1441,1
1442,1442,0
1443,1443,1
1444,1444,0
1445,1445,0
1446,1446,0
1447,1447,0
1448,1448,0
1449,1449,1
1450,1450,0
1451,1451,1
1452,1452,1
1453,1453,0
1454,1454,0
1455,1455,0
1456,1456,0
1457,1457,0
1458,1458,0
1459,1459,1
1460,1460,1
1461,1461,0
1462,1462,0
1463,1463,0
1464,1464,0
1465,1465,1
1466,1466,0
1467,1467,0
1468,1468,0
1469,1469,0
1470,1470,0
1471,1471,0
1472,1472,0
1473,1473,0
1474,1474,0
1475,1475,1
1476,1476,0
1477,1477,0
1478,1478,0
1479,1479,0
1480,1480,0
1481,1481,0
1482,1482,0
1483,1483,0
1484,1484,0
1485,1485,0
1486,1486,0
1487,1487,0
1488,1488,0
1489,1489,0
1490,1490,1
1491,1491,0
1492,1492,0
1493,1493,0
1494,1494,1
1495,1495,0
1496,1496,0
1497,1497,0
1498,1498,0
1499,1499,0
1500,1500,0
1501,1501,0
1502,1502,0
1503,1503,0
1504,1504,1
1505,1505,0
1506,1506,1
1507,1507,0
1508,1508,1
1509,1509,0
1510,1510,0
1511,1511,0
1512,1512,0
1513,1513,0
1514,1514,0
1515,1515,0
1516,1516,0
1517,1517,1
1518,1518,0
1519,1519,0
1520,1520,0
1521,1521,0
1522,1522,0
1523,1523,0
1524,1524,0
1525,1525,1
1526,1526,0
1527,1527,1
1528,1528,0
1529,1529,1
1530,1530,0
1531,1531,0
1532,1532,0
1533,1533,0
1534,1534,0
1535,1535,0
1536,1536,0
1537,1537,0
1538,1538,0
1539,1539,0
1540,1540,0
1541,1541,1
1542,1542,0
1543,1543,0
1544,1544,0
1545,1545,1
1546,1546,0
1547,1547,0
1548,1548,0
1549,1549,0
1550,1550,1
1551,1551,1
1552,1552,0
1553,1553,0
1554,1554,0
1555,1555,0
1556,1556,0
1557,1557,1
1558,1558,0
1559,1559,0
1560,1560,0
1561,1561,0
1562,1562,0
1563,1563,1
1564,1564,0
1565,1565,0
1566,1566,0
1567,1567,0
1568,1568,1
1569,1569,0
1570,1570,0
1571,1571,0
1572,1572,0
1573,1573,0
1574,1574,1
1575,1575,1
1576,1576,0
1577,1577,0
1578,1578,0
1579,1579,0
1580,1580,1
1581,1581,0
1582,1582,0
1583,1583,0
1584,1584,1
1585,1585,0
1586,1586,0
1587,1587,0
1588,1588,0
1589,1589,0
1590,1590,0
1591,1591,0
1592,1592,1
1593,1593,0
1594,1594,0
1595,1595,0
1596,1596,0
1597,1597,0
1598,1598,0
1599,1599,0
1600,1600,1
1601,1601,0
1602,1602,1
1603,1603,1
1604,1604,0
1605,1605,0
1606,1606,0
1607,1607,0
1608,1608,0
1609,1609,0
1610,1610,0
1611,1611,0
1612,1612,1
1613,1613,0
1614,1614,0
1615,1615,0
1616,1616,0
1617,1617,0
1618,1618,0
1619,1619,1
1620,1620,0
1621,1621,0
1622,1622,0
1623,1623,0
1624,1624,0
1625,1625,0
1626,1626,0
1627,1627,0
1628,1628,0
1629,1629,0
1630,1630,0
1631,1631,0
1632,1632,0
1633,1633,0
1634,1634,0
1635,1635,0
1636,1636,0
1637,1637,1
1638,1638,1
1639,1639,0
1640,1640,1
1641,1641,0
1642,1642,0
1643,1643,0
1644,1644,0
1645,1645,0
1646,1646,0
1647,1647,0
1648,1648,0
1649,1649,1
1650,1650,0
1651,1651,0
1652,1652,0
1653,1653,1
1654,1654,0
1655,1655,0
1656,1656,0
1657,1657,0
1658,1658,0
1659,1659,0
1660,1660,0
1661,1661,0
1662,1662,0
1663,1663,0
1664,1664,0
1665,1665,1
1666,1666,0
1667,1667,0
1668,1668,0
1669,1669,0
1670,1670,1
1671,1671,0
1672,1672,0
1673,1673,0
1674,1674,0
1675,1675,0
1676,1676,0
1677,1677,0
1678,1678,0
1679,1679,0
1680,1680,0
1681,1681,0
1682,1682,1
1683,1683,0
1684,1684,1
1685,1685,0
1686,1686,1
1687,1687,0
1688,1688,0
1689,1689,0
1690,1690,0
1691,1691,0
1692,1692,0
1693,1693,0
1694,1694,0
1695,1695,0
1696,1696,0
1697,1697,0
1698,1698,0
1699,1699,0
1700,1700,0
1701,1701,0
1702,1702,0
1703,1703,0
1704,1704,1
1705,1705,0
1706,1706,1
1707,1707,0
1708,1708,1
1709,1709,1
1710,1710,0
1711,1711,0
1712,1712,0
1713,1713,1
1714,1714,0
1715,1715,0
1716,1716,0
1717,1717,0
1718,1718,0
1719,1719,0
1720,1720,0
1721,1721,1
1722,1722,0
1723,1723,0
1724,1724,1
1725,1725,0
1726,1726,1
1727,1727,0
1728,1728,0
1729,1729,1
1730,1730,1
1731,1731,1
1732,1732,0
1733,1733,0
1734,1734,0
1735,1735,0
1736,1736,0
1737,1737,1
1738,1738,0
1739,1739,0
1740,1740,1
1741,1741,0
1742,1742,0
1743,1743,0
1744,1744,0
1745,1745,0
1746,1746,0
1747,1747,0
1748,1748,0
1749,1749,0
1750,1750,0
1751,1751,1
1752,1752,0
1753,1753,1
1754,1754,0
1755,1755,0
1756,1756,0
1757,1757,0
1758,1758,1
1759,1759,1
1760,1760,0
